0.03,25.00,0.00,43.36,104.88,2409.80,104.89,2442.30,2547.20,0.37,8.56
0.03,26.00,0.00,40.99,109.06,2411.10,109.07,2439.90,2549.00,0.38,8.54
0.04,27.00,0.00,38.77,113.25,2412.50,113.25,2437.60,2550.80,0.40,8.52
0.04,28.00,0.00,36.69,117.42,2413.90,117.43,2435.20,2552.60,0.41,8.49
0.04,28.96,0.00,34.80,121.45,2415.20,121.46,2432.90,2554.40,0.42,8.47
0.04,29.00,0.00,34.73,121.60,2415.20,121.61,2432.80,2554.50,0.42,8.47
0.04,30.00,0.00,32.89,125.78,2416.60,125.79,2430.50,2556.30,0.44,8.45
0.04,31.00,0.00,31.16,129.96,2418.00,129.97,2428.10,2558.10,0.45,8.43
0.05,32.00,0.00,29.54,134.14,2419.30,134.15,2425.70,2559.90,0.46,8.41
0.05,33.00,0.00,28.01,138.32,2420.70,138.33,2423.40,2561.70,0.48,8.39
0.05,34.00,0.00,26.57,142.50,2422.00,142.50,2421.00,2563.50,0.49,8.37
0.06,35.00,0.00,25.22,146.67,2423.40,146.68,2418.60,2565.30,0.51,8.35
0.06,36.00,0.00,23.94,150.85,2424.70,150.86,2416.20,2567.10,0.52,8.33
0.06,36.16,0.00,23.74,151.53,2425.00,151.53,2415.90,2567.40,0.52,8.33
0.07,38.00,0.00,21.60,159.20,2427.40,159.21,2411.50,2570.70,0.55,8.29
0.07,40.00,0.00,19.52,167.56,2430.10,167.57,2406.70,2574.30,0.57,8.26
0.08,41.51,0.00,18.10,173.87,2432.20,173.88,2403.10,2577.00,0.59,8.23
0.10,45.00,0.00,15.26,188.44,2436.80,188.45,2394.80,2583.20,0.64,8.16
0.10,45.81,0.00,14.67,191.82,2437.90,191.83,2392.80,2584.70,0.65,8.15
0.12,50.00,0.00,12.03,209.32,2443.50,209.33,2382.70,2592.10,0.70,8.08
0.16,55.00,0.00,9.57,230.21,2450.10,230.23,2370.70,2600.90,0.77,7.99
0.20,60.00,0.00,7.67,251.11,2456.60,251.13,2358.50,2609.60,0.83,7.91
0.20,60.06,0.00,7.65,251.38,2456.70,251.40,2358.30,2609.70,0.83,7.91
0.25,65.00,0.00,6.20,272.02,2463.10,272.06,2346.20,2618.30,0.89,7.83
0.30,69.10,0.00,5.23,289.20,2468.40,289.23,2336.10,2625.30,0.94,7.77
0.31,70.00,0.00,5.04,292.95,2469.60,292.98,2333.80,2626.80,0.95,7.76
0.39,75.00,0.00,4.13,313.90,2475.90,313.93,2321.40,2635.30,1.02,7.68
0.40,75.87,0.00,3.99,317.53,2477.00,317.58,2319.20,2636.80,1.03,7.67
0.47,80.00,0.00,3.41,334.86,2482.20,334.91,2308.80,2643.70,1.08,7.61
0.50,81.33,0.00,3.24,340.44,2483.90,340.49,2305.40,2645.90,1.09,7.59
0.58,85.00,0.00,2.83,355.84,2488.40,355.90,2296.00,2651.90,1.13,7.54
0.60,85.94,0.00,2.73,359.79,2489.60,359.86,2293.60,2653.50,1.15,7.53
0.70,89.95,0.00,2.37,376.63,2494.50,376.70,2283.30,2660.00,1.19,7.48
0.70,90.00,0.00,2.36,376.85,2494.50,376.92,2283.20,2660.10,1.19,7.48
0.80,93.50,0.00,2.09,391.58,2498.80,391.66,2274.10,2665.80,1.23,7.43
0.85,95.00,0.00,1.98,397.88,2500.60,397.96,2270.20,2668.10,1.25,7.42
0.90,96.71,0.00,1.87,405.06,2502.60,405.15,2265.70,2670.90,1.27,7.39
1.00,99.63,0.00,1.69,417.36,2506.10,417.46,2258.00,2675.50,1.30,7.36
1.01,100.00,0.00,1.67,418.94,2506.50,419.04,2257.00,2676.10,1.31,7.35
1.43,110.00,0.00,1.21,461.14,2518.10,461.30,2230.20,2691.50,1.42,7.24
1.50,111.40,0.00,1.16,466.94,2519.70,467.11,2226.50,2693.60,1.43,7.22
1.99,120.00,0.00,0.89,503.50,2529.30,503.71,2202.60,2706.30,1.53,7.13
2.00,120.20,0.00,0.89,504.49,2529.50,504.70,2201.90,2706.70,1.53,7.13
2.50,127.40,0.00,0.72,535.10,2537.20,535.37,2181.50,2716.90,1.61,7.05
2.70,130.00,0.00,0.67,546.02,2539.90,546.31,2174.20,2720.50,1.63,7.03
3.00,133.60,0.00,0.61,561.15,2543.60,561.47,2163.80,2725.30,1.67,6.99
3.50,138.90,0.00,0.52,583.95,2546.90,584.33,2148.10,2732.40,1.73,6.94
3.61,140.00,0.00,0.51,588.74,2550.00,589.13,2144.70,2733.90,1.74,6.93
4.00,143.60,0.00,0.46,604.31,2553.60,604.74,2133.80,2738.60,1.78,6.90
4.50,147.90,0.00,0.41,622.25,2557.60,623.25,2120.70,2743.90,1.82,6.86
4.76,150.00,0.00,0.39,631.68,2559.50,632.20,2114.30,2746.50,1.84,6.84
5.00,151.90,0.00,0.37,639.68,2561.20,640.23,2108.50,2748.70,1.86,6.82
6.00,158.90,0.00,0.32,669.90,2567.40,670.56,2086.30,2756.80,1.93,6.76
6.18,160.00,0.00,0.31,674.86,2568.40,675.55,2082.60,2758.10,1.94,6.75
7.00,165.00,0.00,0.27,696.44,2572.50,697.22,2066.30,2763.50,1.99,6.71
7.92,170.00,0.00,0.24,718.33,2576.50,719.21,2049.50,2768.70,2.04,6.67
8.00,170.40,0.00,0.24,720.22,2576.80,721.11,2048.00,2769.10,2.05,6.66
9.00,175.40,0.00,0.21,741.83,2580.50,742.83,2031.10,2773.90,2.09,6.62
10.00,179.90,0.00,0.19,761.68,2583.60,762.81,2015.30,2778.10,2.14,6.59
10.02,180.00,0.00,0.19,762.09,2583.70,763.22,2015.00,2778.20,2.14,6.59
12.54,190.00,0.00,0.16,806.19,2590.00,807.62,1978.80,2786.40,2.24,6.51
15.00,198.30,0.00,0.13,843.16,2594.50,844.84,1947.30,2792.20,2.31,6.44
15.54,200.00,0.00,0.13,850.65,2595.30,852.45,1940.70,2793.20,2.33,6.43
19.06,210.00,0.00,0.10,895.53,2599.50,897.76,1900.70,2798.50,2.42,6.36
20.00,212.40,0.00,0.10,906.44,2600.30,908.79,1890.70,2799.50,2.45,6.34
23.18,220.00,0.00,0.09,940.87,2602.40,943.62,1858.50,2802.10,2.52,6.29
25.00,224.00,0.00,0.08,959.11,2603.10,962.11,1841.00,2803.10,2.55,6.26
27.95,230.00,0.00,0.07,986.74,2603.90,990.12,1813.80,2804.00,2.61,6.21
30.00,233.90,0.00,0.07,1004.80,2604.10,1008.40,1795.70,2804.20,2.65,6.19
33.44,240.00,0.00,0.06,1033.20,2604.00,1037.30,1766.50,2803.80,2.70,6.14
35.00,242.60,0.00,0.06,1045.40,2603.70,1049.80,1753.70,2803.40,2.73,6.13
39.73,250.00,0.00,0.05,1080.40,2602.40,1085.40,1716.20,2801.50,2.79,6.07
40.00,250.40,0.00,0.05,1082.30,2602.30,1087.30,1714.10,2801.40,2.80,6.07
45.00,257.50,0.00,0.04,1116.20,2600.10,1121.90,1676.40,2798.30,2.86,6.02
46.88,260.00,0.00,0.04,1128.40,2599.00,1134.40,1662.50,2796.60,2.88,6.00
50.00,264.00,0.00,0.04,1147.80,2597.10,1154.20,1640.10,2794.30,2.92,5.97
54.99,270.00,0.00,0.04,1177.40,2593.70,1184.50,1605.20,2789.70,2.98,5.93
60.00,275.60,0.00,0.03,1205.40,2589.70,1213.40,1571.00,2784.30,3.03,5.89
64.12,280.00,0.00,0.03,1227.50,2586.10,1236.00,1543.60,2779.60,3.07,5.86
70.00,285.90,0.00,0.03,1257.60,2580.50,1267.00,1505.10,2772.10,3.12,5.81
74.36,290.00,0.00,0.03,1278.90,2576.00,1289.10,1477.10,2766.20,3.16,5.78
80.00,295.10,0.00,0.02,1305.60,2569.80,1316.60,1441.30,2758.00,3.21,5.74
85.81,300.00,0.00,0.02,1332.00,2563.00,1344.00,1404.90,2749.00,3.25,5.70
90.00,303.40,0.00,0.02,1350.50,2557.80,1363.30,1378.90,2742.10,3.29,5.68
100.00,311.10,0.00,0.02,1393.00,2544.40,1407.60,1317.10,2724.70,3.36,5.61
110.00,318.20,0.00,0.02,1433.70,2529.80,1450.10,1255.50,2705.60,3.43,5.55
112.70,320.00,0.00,0.02,1444.60,2525.50,1461.50,1238.60,2700.10,3.45,5.54
120.00,324.80,0.00,0.01,1473.00,2513.70,1491.30,1193.60,2684.90,3.50,5.49
130.00,330.90,0.00,0.01,1511.10,2496.10,1531.50,1130.70,2662.20,3.56,5.43
140.00,336.80,0.00,0.01,1548.60,2476.80,1571.10,1066.50,2637.60,3.62,5.37
145.90,340.00,0.00,0.01,1570.30,2464.60,1594.20,1027.90,2622.00,3.66,5.34
150.00,342.20,0.00,0.01,1585.60,2455.50,1610.50,1000.00,2610.50,3.68,5.31
160.00,347.40,0.00,0.01,1622.70,2431.70,1650.10,930.60,2580.60,3.75,5.25
170.00,352.40,0.00,0.01,1660.20,2405.00,1690.30,856.90,2547.20,3.81,5.18
180.00,357.10,0.00,0.01,1698.90,2374.30,1732.00,777.10,2509.10,3.87,5.10
186.50,360.00,0.00,0.01,1725.20,2351.50,1760.50,720.50,2481.00,3.91,5.05
190.00,361.50,0.00,0.01,1739.90,2338.10,1776.50,688.00,2464.50,3.94,5.02
200.00,365.80,0.00,0.01,1785.60,2293.00,1826.30,583.40,2409.70,4.01,4.93
220.90,374.10,0.00,0.00,2029.60,2029.60,2099.30,0.00,2099.30,4.43,4.43
